Mehmet Kemal Ucuzcu - 2 In Class Exercise 1
…
      October 19, 2022

library(tidyverse)
library(nycflights13)

2.1 The number of planes according to manufacturer brands

We are talking about NewYork. It is acceptable that BOEING has the highest number of planes, considering that BOEING is an American manufacturer.

planes %>% 
  group_by(manufacturer)%>%
  summarise(count=n()) %>% 
  arrange(desc(count))

# A tibble: 35 × 2
   manufacturer                  count
   <chr>                         <int>
 1 BOEING                         1630
 2 AIRBUS INDUSTRIE                400
 3 BOMBARDIER INC                  368
 4 AIRBUS                          336
 5 EMBRAER                         299
 6 MCDONNELL DOUGLAS               120
 7 MCDONNELL DOUGLAS AIRCRAFT CO   103
 8 MCDONNELL DOUGLAS CORPORATION    14
 9 CANADAIR                          9
10 CESSNA                            9
# … with 25 more rows
…
